{
	"info": {
		"_postman_id": "276868a3-10f6-401d-a5b4-71a12556335c",
		"name": "Passing Postman collection",
		"description": "Makes four requests to HTTPBin (httpbin.org) and tests Newman",
		"schema": "https://schema.getpostman.com/json/collection/v2.1.0/collection.json",
		"_exporter_id": "7626628"
	},
	"item": [
		{
			"name": "GET with URL Params",
			"event": [
				{
					"listen": "test",
					"script": {
						"exec": [
							"pm.test(\"Status code is 200\", function () {",
							"    pm.response.to.have.status(201);",
							"});",
							"",
							"pm.test(\"Response contains params\", function () {",
							"    let data = pm.response.json();",
							"    pm.expect(data.args.lol).to.eql(\"true\");",
							"});"
						],
						"type": "text/javascript"
					}
				}
			],
			"request": {
				"method": "GET",
				"header": [],
				"url": {
					"raw": "{{url}}/get?lol=true",
					"host": [
						"{{url}}"
					],
					"path": [
						"get"
					],
					"query": [
						{
							"key": "lol",
							"value": "true"
						}
					]
				},
				"description": "Simple GET request with URL Parameters"
			},
			"response": []
		},
		{
			"name": "POST with JSON body",
			"event": [
				{
					"listen": "test",
					"script": {
						"type": "text/javascript",
						"exec": [
							"pm.test(\"Status code is 200\", function () {",
							"    pm.response.to.have.status(200);",
							"});",
							"",
							"pm.test(\"Check POST param in response\", function () {",
							"    let data = pm.response.json();",
							"    pm.expect(data.json.something).to.eql(\"cool\");",
							"});"
						]
					}
				}
			],
			"request": {
				"method": "POST",
				"header": [
					{
						"key": "Content-Type",
						"value": "application/json"
					}
				],
				"body": {
					"mode": "raw",
					"raw": "{\n    \"something\": \"cool\"\n}"
				},
				"url": {
					"raw": "http://httpbin.org/post",
					"protocol": "http",
					"host": [
						"httpbin",
						"org"
					],
					"path": [
						"post"
					]
				}
			},
			"response": []
		},
		{
			"name": "DELETE request",
			"event": [
				{
					"listen": "test",
					"script": {
						"type": "text/javascript",
						"exec": [
							"pm.test(\"Status code is 200\", function () {",
							"    pm.response.to.have.status(200);",
							"});"
						]
					}
				}
			],
			"request": {
				"method": "DELETE",
				"header": [],
				"body": {
					"mode": "formdata",
					"formdata": []
				},
				"url": {
					"raw": "http://httpbin.org/delete",
					"protocol": "http",
					"host": [
						"httpbin",
						"org"
					],
					"path": [
						"delete"
					]
				}
			},
			"response": []
		},
		{
			"name": "PUT with form data",
			"event": [
				{
					"listen": "test",
					"script": {
						"type": "text/javascript",
						"exec": [
							"pm.test(\"Status code is 200\", function () {",
							"    pm.response.to.have.status(200);",
							"});",
							"",
							"pm.test(\"Test form data\", function () {",
							"    let data = pm.response.json();",
							"    pm.expect(data.form.quotient).to.eql(\"223\");",
							"});"
						]
					}
				}
			],
			"request": {
				"method": "PUT",
				"header": [],
				"body": {
					"mode": "urlencoded",
					"urlencoded": [
						{
							"key": "quotient",
							"value": "223",
							"type": "text"
						}
					]
				},
				"url": {
					"raw": "http://httpbin.org/put",
					"protocol": "http",
					"host": [
						"httpbin",
						"org"
					],
					"path": [
						"put"
					]
				}
			},
			"response": []
		}
	],
	"event": [
		{
			"listen": "prerequest",
			"script": {
				"type": "text/javascript",
				"exec": [
					""
				]
			}
		},
		{
			"listen": "test",
			"script": {
				"type": "text/javascript",
				"exec": [
					""
				]
			}
		}
	]
}